{
    "/api/*": {
      "target": "http://app.docker:3000",
      "secure": false,
      "logLevel": "debug",
      "changeOrigin": true,
      "pathRewrite": {
        "^/horarios": ""      
      }
    }
  }